{
  "project_info": {
    "project_number": "611522976621",
    "firebase_url": "https://project-2041291700268874188.firebaseio.com",
    "project_id": "project-2041291700268874188",
    "storage_bucket": "project-2041291700268874188.appspot.com"
  },
  "client": [
    {
      "client_info": {
        "mobilesdk_app_id": "1:611522976621:android:37a5d72284af6696",
        "android_client_info": {
          "package_name": "com.amrizal.example.laistester"
        }
      },
      "oauth_client": [
        {
          "client_id": "611522976621-il41i7tnc9k0j7ov8p91sjverh1lnesi.apps.googleusercontent.com",
          "client_type": 1,
          "android_info": {
            "package_name": "com.amrizal.example.laistester",
            "certificate_hash": "7AE7BD2E89FB922DDB96EE84CA67A3CF6A985CB8"
          }
        },
        {
          "client_id": "611522976621-pknv7s6ifpol2i2liteplv3t9gimnchb.apps.googleusercontent.com",
          "client_type": 1,
          "android_info": {
            "package_name": "com.amrizal.example.laistester",
            "certificate_hash": "BD7119F3068E8657019E639F7BC121810FFD0914"
          }
        },
        {
          "client_id": "611522976621-5b68an03d231e8rgqh53qnuv9gc1eh26.apps.googleusercontent.com",
          "client_type": 3
        }
      ],
      "api_key": [
        {
          "current_key": "AIzaSyB29PyWtCwWz7kuXTpla0UsGzxVQzUdx8o"
        }
      ],
      "services": {
        "analytics_service": {
          "status": 1
        },
        "appinvite_service": {
          "status": 2,
          "other_platform_oauth_client": [
            {
              "client_id": "611522976621-5b68an03d231e8rgqh53qnuv9gc1eh26.apps.googleusercontent.com",
              "client_type": 3
            }
          ]
        },
        "ads_service": {
          "status": 2
        }
      }
    },
    {
      "client_info": {
        "mobilesdk_app_id": "1:611522976621:android:c168006337d2a290",
        "android_client_info": {
          "package_name": "com.amrizal.example.deolivieratester"
        }
      },
      "oauth_client": [
        {
          "client_id": "611522976621-m7rm5ttjmdf8ciu332agongafp81latv.apps.googleusercontent.com",
          "client_type": 1,
          "android_info": {
            "package_name": "com.amrizal.example.deolivieratester",
            "certificate_hash": "BD7119F3068E8657019E639F7BC121810FFD0914"
          }
        },
        {
          "client_id": "611522976621-5b68an03d231e8rgqh53qnuv9gc1eh26.apps.googleusercontent.com",
          "client_type": 3
        }
      ],
      "api_key": [
        {
          "current_key": "AIzaSyB29PyWtCwWz7kuXTpla0UsGzxVQzUdx8o"
        }
      ],
      "services": {
        "analytics_service": {
          "status": 1
        },
        "appinvite_service": {
          "status": 2,
          "other_platform_oauth_client": [
            {
              "client_id": "611522976621-5b68an03d231e8rgqh53qnuv9gc1eh26.apps.googleusercontent.com",
              "client_type": 3
            }
          ]
        },
        "ads_service": {
          "status": 2
        }
      }
    },
    {
      "client_info": {
        "mobilesdk_app_id": "1:611522976621:android:4f97b7ac16ff4068",
        "android_client_info": {
          "package_name": "com.amrizal.example.fcmtester"
        }
      },
      "oauth_client": [
        {
          "client_id": "611522976621-dqu9d80dvs3ci87usrr0f6i6fpb1rd5a.apps.googleusercontent.com",
          "client_type": 1,
          "android_info": {
            "package_name": "com.amrizal.example.fcmtester",
            "certificate_hash": "BD7119F3068E8657019E639F7BC121810FFD0914"
          }
        },
        {
          "client_id": "611522976621-5b68an03d231e8rgqh53qnuv9gc1eh26.apps.googleusercontent.com",
          "client_type": 3
        }
      ],
      "api_key": [
        {
          "current_key": "AIzaSyB29PyWtCwWz7kuXTpla0UsGzxVQzUdx8o"
        }
      ],
      "services": {
        "analytics_service": {
          "status": 1
        },
        "appinvite_service": {
          "status": 2,
          "other_platform_oauth_client": [
            {
              "client_id": "611522976621-5b68an03d231e8rgqh53qnuv9gc1eh26.apps.googleusercontent.com",
              "client_type": 3
            }
          ]
        },
        "ads_service": {
          "status": 2
        }
      }
    },
    {
      "client_info": {
        "mobilesdk_app_id": "1:611522976621:android:5920de3503a2d18c",
        "android_client_info": {
          "package_name": "com.google.firebase.quickstart.fcm"
        }
      },
      "oauth_client": [
        {
          "client_id": "611522976621-oikf2br90eas0e20bc9apm69qsgd8hkq.apps.googleusercontent.com",
          "client_type": 1,
          "android_info": {
            "package_name": "com.google.firebase.quickstart.fcm",
            "certificate_hash": "BD7119F3068E8657019E639F7BC121810FFD0914"
          }
        },
        {
          "client_id": "611522976621-5b68an03d231e8rgqh53qnuv9gc1eh26.apps.googleusercontent.com",
          "client_type": 3
        }
      ],
      "api_key": [
        {
          "current_key": "AIzaSyB29PyWtCwWz7kuXTpla0UsGzxVQzUdx8o"
        }
      ],
      "services": {
        "analytics_service": {
          "status": 1
        },
        "appinvite_service": {
          "status": 2,
          "other_platform_oauth_client": [
            {
              "client_id": "611522976621-5b68an03d231e8rgqh53qnuv9gc1eh26.apps.googleusercontent.com",
              "client_type": 3
            }
          ]
        },
        "ads_service": {
          "status": 2
        }
      }
    },
    {
      "client_info": {
        "mobilesdk_app_id": "1:611522976621:android:02e847308f209d9c",
        "android_client_info": {
          "package_name": "com.amrizal.example.notificationtester"
        }
      },
      "oauth_client": [
        {
          "client_id": "611522976621-bdv453j0luufqs46i3mjntq6grv2vpmd.apps.googleusercontent.com",
          "client_type": 1,
          "android_info": {
            "package_name": "com.amrizal.example.notificationtester",
            "certificate_hash": "BD7119F3068E8657019E639F7BC121810FFD0914"
          }
        },
        {
          "client_id": "611522976621-5b68an03d231e8rgqh53qnuv9gc1eh26.apps.googleusercontent.com",
          "client_type": 3
        }
      ],
      "api_key": [
        {
          "current_key": "AIzaSyB29PyWtCwWz7kuXTpla0UsGzxVQzUdx8o"
        }
      ],
      "services": {
        "analytics_service": {
          "status": 1
        },
        "appinvite_service": {
          "status": 2,
          "other_platform_oauth_client": [
            {
              "client_id": "611522976621-5b68an03d231e8rgqh53qnuv9gc1eh26.apps.googleusercontent.com",
              "client_type": 3
            }
          ]
        },
        "ads_service": {
          "status": 2
        }
      }
    },
    {
      "client_info": {
        "mobilesdk_app_id": "1:611522976621:android:78960ee347a4c2cd",
        "android_client_info": {
          "package_name": "com.amrizal.example.firebasetester"
        }
      },
      "oauth_client": [
        {
          "client_id": "611522976621-1np3n55f3duori92q3ni45spj0l0u651.apps.googleusercontent.com",
          "client_type": 1,
          "android_info": {
            "package_name": "com.amrizal.example.firebasetester",
            "certificate_hash": "BD7119F3068E8657019E639F7BC121810FFD0914"
          }
        },
        {
          "client_id": "611522976621-5b68an03d231e8rgqh53qnuv9gc1eh26.apps.googleusercontent.com",
          "client_type": 3
        }
      ],
      "api_key": [
        {
          "current_key": "AIzaSyB29PyWtCwWz7kuXTpla0UsGzxVQzUdx8o"
        }
      ],
      "services": {
        "analytics_service": {
          "status": 1
        },
        "appinvite_service": {
          "status": 2,
          "other_platform_oauth_client": [
            {
              "client_id": "611522976621-5b68an03d231e8rgqh53qnuv9gc1eh26.apps.googleusercontent.com",
              "client_type": 3
            }
          ]
        },
        "ads_service": {
          "status": 2
        }
      }
    }
  ],
  "configuration_version": "1"
}